2024_11_29_Faraday/data/12_05/ALL0012/F0012CH2.CSV

Record Length,2.500000e+03,,  -0.000050000000,  -0.20000,
Sample Interval,2.000000e-07,,  -0.000049800000,  -0.60000,
Trigger Point,2.500000000000e+02,,  -0.000049600000,  -0.20000,
,,,  -0.000049400000,  -0.40000,
,,,  -0.000049200000,  -0.40000,
,,,  -0.000049000000,  -0.20000,
Source,CH2,,  -0.000048800000,   0.00000,
Vertical Units,V,,  -0.000048600000,  -0.20000,
Vertical Scale,5.000000e+00,,  -0.000048400000,  -0.40000,
Vertical Offset,-1.500000e+01,,  -0.000048200000,  -0.40000,
Horizontal Units,s,,  -0.000048000000,  -0.40000,
Horizontal Scale,5.000000e-05,,  -0.000047800000,  -0.40000,
Pt Fmt,Y,,  -0.000047600000,   0.00000,
Yzero,0.000000e+00,,  -0.000047400000,   0.20000,
Probe Atten,1.000000e+01,,  -0.000047200000,  -0.20000,
Model Number,TDS1001B,,  -0.000047000000,  -0.20000,
Serial Number,C105846,,  -0.000046800000,  -0.60000,
Firmware Version,FV:v22.13,,  -0.000046600000,  -0.40000,
,,,-00.000046400000,  -0.60000,
,,,-00.000046200000,  -0.40000,
,,,-00.000046000000,  -0.40000,
,,,-00.000045800000,  -0.20000,
,,,-00.000045600000,  -0.20000,
,,,-00.000045400000,  -0.20000,
,,,-00.000045200000,  -0.20000,
,,,-00.000045000000,  -0.40000,
,,,-00.000044800000,  -0.60000,
,,,-00.000044600000,  -0.40000,
,,,-00.000044400000,   0.00000,
,,,-00.000044200000,  -0.20000,
,,,-00.000044000000,   0.00000,
,,,-00.000043800000,  -0.20000,
,,,-00.000043600000,  -0.20000,
,,,-00.000043400000,   0.00000,
,,,-00.000043200000,  -0.40000,
,,,-00.000043000000,   0.00000,
,,,-00.000042800000,  -0.20000,
,,,-00.000042600000,   0.00000,
,,,-00.000042400000,  -0.20000,
,,,-00.000042200000,   0.00000,
,,,-00.000042000000,  -0.20000,
,,,-00.000041800000,  -0.40000,
,,,-00.000041600000,  -0.40000,
,,,-00.000041400000,  -0.60000,
,,,-00.000041200000,  -0.20000,
,,,-00.000041000000,   0.00000,
,,,-00.000040800000,   0.00000,
,,,-00.000040600000,  -0.40000,
,,,-00.000040400000,  -0.20000,
,,,-00.000040200000,  -0.20000,
,,,-00.000040000000,  -0.20000,
,,,-00.000039800000,  -0.40000,
,,,-00.000039600000,  -0.20000,
,,,-00.000039400000,  -0.60000,
,,,-00.000039200000,  -0.40000,
,,,-00.000039000000,  -0.40000,
,,,-00.000038800000,   0.00000,
,,,-00.000038600000,  -0.20000,
,,,-00.000038400000,  -0.20000,
,,,-00.000038200000,  -0.40000,
,,,-00.000038000000,  -0.40000,
,,,-00.000037800000,  -0.20000,
,,,-00.000037600000,  -0.40000,
,,,-00.000037400000,  -0.40000,
,,,-00.000037200000,  -0.20000,
,,,-00.000037000000,   0.00000,
,,,-00.000036800000,  -0.40000,
,,,-00.000036600000,  -0.40000,
,,,-00.000036400000,  -0.60000,
,,,-00.000036200000,  -0.40000,
,,,-00.000036000000,   0.00000,
,,,-00.000035800000,   0.00000,
,,,-00.000035600000,   0.00000,
,,,-00.000035400000,  -0.20000,
,,,-00.000035200000,  -0.60000,
,,,-00.000035000000,  -0.40000,
,,,-00.000034800000,  -0.60000,
,,,-00.000034600000,  -0.20000,
,,,-00.000034400000,  -0.20000,
,,,-00.000034200000,  -0.20000,
,,,-00.000034000000,  -0.20000,
,,,-00.000033800000,  -0.20000,
,,,-00.000033600000,  -0.20000,
,,,-00.000033400000,  -0.40000,
,,,-00.000033200000,  -0.40000,
,,,-00.000033000000,   0.00000,
,,,-00.000032800000,  -0.40000,
,,,-00.000032600000,   0.00000,
,,,-00.000032400000,  -0.20000,
,,,-00.000032200000,  -0.40000,
,,,-00.000032000000,  -0.40000,
,,,-00.000031800000,  -0.40000,
,,,-00.000031600000,  -0.40000,
,,,-00.000031400000,   0.00000,
,,,-00.000031200000,   0.00000,
,,,-00.000031000000,  -0.20000,
,,,-00.000030800000,  -0.20000,
,,,-00.000030600000,  -0.20000,
,,,-00.000030400000,  -0.20000,
,,,-00.000030200000,  -0.20000,
,,,-00.000030000000,  -0.40000,
,,,-00.000029800000,   0.00000,
,,,-00.000029600000,  -0.60000,
,,,-00.000029400000,  -0.40000,
,,,-00.000029200000,   0.00000,
,,,-00.000029000000,  -0.20000,
,,,-00.000028800000,  -0.40000,
,,,-00.000028600000,   0.20000,
,,,-00.000028400000,  -0.40000,
,,,-00.000028200000,  -0.20000,
,,,-00.000028000000,   0.00000,
,,,-00.000027800000,   0.00000,
,,,-00.000027600000,   0.20000,
,,,-00.000027400000,   0.00000,
,,,-00.000027200000,  -0.20000,
,,,-00.000027000000,  -0.20000,
,,,-00.000026800000,  -0.40000,
,,,-00.000026600000,  -0.40000,
,,,-00.000026400000,  -0.20000,
,,,-00.000026200000,  -0.20000,
,,,-00.000026000000,  -0.20000,
,,,-00.000025800000,  -0.20000,
,,,-00.000025600000,  -0.20000,
,,,-00.000025400000,  -0.20000,
,,,-00.000025200000,  -0.20000,
,,,-00.000025000000,  -0.40000,
,,,-00.000024800000,   0.00000,
,,,-00.000024600000,   0.20000,
,,,-00.000024400000,  -0.40000,
,,,-00.000024200000,   0.00000,
,,,-00.000024000000,   0.00000,
,,,-00.000023800000,  -0.20000,
,,,-00.000023600000,   0.00000,
,,,-00.000023400000,  -0.20000,
,,,-00.000023200000,  -0.20000,
,,,-00.000023000000,   0.00000,
,,,-00.000022800000,   0.00000,
,,,-00.000022600000,   0.00000,
,,,-00.000022400000,   0.00000,
,,,-00.000022200000,   0.00000,
,,,-00.000022000000,  -0.40000,
,,,-00.000021800000,  -0.40000,
,,,-00.000021600000,  -0.40000,
,,,-00.000021400000,   0.00000,
,,,-00.000021200000,  -0.20000,
,,,-00.000021000000,   0.00000,
,,,-00.000020800000,  -0.20000,
,,,-00.000020600000,  -0.20000,
,,,-00.000020400000,  -0.20000,
,,,-00.000020200000,  -0.40000,
,,,-00.000020000000,  -0.40000,
,,,-00.000019800000,  -0.20000,
,,,-00.000019600000,  -0.40000,
,,,-00.000019400000,  -0.20000,
,,,-00.000019200000,  -0.40000,
,,,-00.000019000000,   0.00000,
,,,-00.000018800000,   0.20000,
,,,-00.000018600000,  -0.40000,
,,,-00.000018400000,  -0.40000,
,,,-00.000018200000,  -0.20000,
,,,-00.000018000000,   0.20000,
,,,-00.000017800000,   0.00000,
,,,-00.000017600000,  -0.20000,
,,,-00.000017400000,   0.00000,
,,,-00.000017200000,  -0.20000,
,,,-00.000017000000,  -0.20000,
,,,-00.000016800000,  -0.40000,
,,,-00.000016600000,  -0.20000,
,,,-00.000016400000,  -0.20000,
,,,-00.000016200000,  -0.40000,
,,,-00.000016000000,   0.20000,
,,,-00.000015800000,   0.00000,
,,,-00.000015600000,   0.00000,
,,,-00.000015400000,  -0.40000,
,,,-00.000015200000,  -0.60000,
,,,-00.000015000000,  -0.40000,
,,,-00.000014800000,  -0.20000,
,,,-00.000014600000,   0.00000,
,,,-00.000014400000,   0.20000,
,,,-00.000014200000,   0.00000,
,,,-00.000014000000,   0.00000,
,,,-00.000013800000,   0.20000,
,,,-00.000013600000,  -0.20000,
,,,-00.000013400000,   0.00000,
,,,-00.000013200000,   0.00000,
,,,-00.000013000000,  -0.20000,
,,,-00.000012800000,  -0.20000,
,,,-00.000012600000,  -0.20000,
,,,-00.000012400000,  -0.20000,
,,,-00.000012200000,  -0.40000,
,,,-00.000012000000,  -0.20000,
,,,-00.000011800000,  -0.60000,
,,,-00.000011600000,  -0.20000,
,,,-00.000011400000,   0.00000,
,,,-00.000011200000,  -0.40000,
,,,-00.000011000000,  -0.20000,
,,,-00.000010800000,  -0.20000,
,,,-00.000010600000,   0.00000,
,,,-00.000010400000,   0.00000,
,,,-00.000010200000,  -0.40000,
,,,-00.000010000000,   0.00000,
,,,-00.000009800000,  -0.40000,
,,,-00.000009600000,  -0.20000,
,,,-00.000009400000,  -0.20000,
,,,-00.000009200000,   0.00000,
,,,-00.000009000000,  -0.20000,
,,,-00.000008800000,   0.00000,
,,,-00.000008600000,  -0.40000,
,,,-00.000008400000,  -0.20000,
,,,-00.000008200000,   0.00000,
,,,-00.000008000000,   0.20000,
,,,-00.000007800000,   0.20000,
,,,-00.000007600000,  -0.20000,
,,,-00.000007400000,  -0.20000,
,,,-00.000007200000,  -0.40000,
,,,-00.000007000000,  -0.40000,
,,,-00.000006800000,  -0.40000,
,,,-00.000006600000,  -0.20000,
,,,-00.000006400000,  -0.20000,
,,,-00.000006200000,  -0.20000,
,,,-00.000006000000,  -0.40000,
,,,-00.000005800000,   0.00000,
,,,-00.000005600000,  -0.20000,
,,,-00.000005400000,  -0.40000,
,,,-00.000005200000,  -0.40000,
,,,-00.000005000000,   0.00000,
,,,-00.000004800000,   0.20000,
,,,-00.000004600000,  -0.20000,
,,,-00.000004400000,   0.20000,
,,,-00.000004200000,   0.20000,
,,,-00.000004000000,   0.00000,
,,,-00.000003800000,   0.00000,
,,,-00.000003600000,  -0.60000,
,,,-00.000003400000,   0.00000,
,,,-00.000003200000,  -0.20000,
,,,-00.000003000000,   0.20000,
,,,-00.000002800000,  -0.20000,
,,,-00.000002600000,   0.20000,
,,,-00.000002400000,   0.40000,
,,,-00.000002200000,   0.20000,
,,,-00.000002000000,   0.20000,
,,,-00.000001800000,   0.20000,
,,,-00.000001600000,   0.40000,
,,,-00.000001400000,   0.60000,
,,,-00.000001200000,   0.80000,
,,,-00.000001000000,   0.80000,
,,,-00.000000800000,   0.80000,
,,,-00.000000600000,   0.80000,
,,,-00.000000400000,   0.60000,
,,,-00.000000200000,   0.40000,
,,,-00.000000000000,   1.00000,
,,,00.000000200000,   0.80000,
,,,00.000000400000,   1.00000,
,,,00.000000600000,   1.00000,
,,,00.000000800000,   1.60000,
,,,00.000001000000,   1.60000,
,,,00.000001200000,   1.20000,
,,,00.000001400000,   1.20000,
,,,00.000001600000,   1.60000,
,,,00.000001800000,   2.00000,
,,,00.000002000000,   1.80000,
,,,00.000002200000,   1.60000,
,,,00.000002400000,   2.20000,
,,,00.000002600000,   2.00000,
,,,00.000002800000,   2.00000,
,,,00.000003000000,   2.20000,
,,,00.000003200000,   2.20000,
,,,00.000003400000,   2.60000,
,,,00.000003600000,   2.60000,
,,,00.000003800000,   2.80000,
,,,00.000004000000,   2.60000,
,,,00.000004200000,   2.80000,
,,,00.000004400000,   2.40000,
,,,00.000004600000,   2.80000,
,,,00.000004800000,   2.40000,
,,,00.000005000000,   3.20000,
,,,00.000005200000,   3.20000,
,,,00.000005400000,   3.80000,
,,,00.000005600000,   3.40000,
,,,00.000005800000,   3.40000,
,,,00.000006000000,   3.80000,
,,,00.000006200000,   3.60000,
,,,00.000006400000,   4.00000,
,,,00.000006600000,   4.00000,
,,,00.000006800000,   4.20000,
,,,00.000007000000,   4.00000,
,,,00.000007200000,   4.20000,
,,,00.000007400000,   4.00000,
,,,00.000007600000,   4.20000,
,,,00.000007800000,   4.20000,
,,,00.000008000000,   4.20000,
,,,00.000008200000,   4.80000,
,,,00.000008400000,   4.60000,
,,,00.000008600000,   4.40000,
,,,00.000008800000,   4.60000,
,,,00.000009000000,   4.60000,
,,,00.000009200000,   5.20000,
,,,00.000009400000,   5.20000,
,,,00.000009600000,   4.80000,
,,,00.000009800000,   5.40000,
,,,00.000010000000,   5.40000,
,,,00.000010200000,   5.40000,
,,,00.000010400000,   5.60000,
,,,00.000010600000,   5.80000,
,,,00.000010800000,   5.80000,
,,,00.000011000000,   6.00000,
,,,00.000011200000,   6.00000,
,,,00.000011400000,   5.80000,
,,,00.000011600000,   6.20000,
,,,00.000011800000,   6.40000,
,,,00.000012000000,   6.80000,
,,,00.000012200000,   6.60000,
,,,00.000012400000,   6.40000,
,,,00.000012600000,   6.60000,
,,,00.000012800000,   6.60000,
,,,00.000013000000,   6.60000,
,,,00.000013200000,   6.80000,
,,,00.000013400000,   7.00000,
,,,00.000013600000,   6.80000,
,,,00.000013800000,   7.20000,
,,,00.000014000000,   7.20000,
,,,00.000014200000,   7.40000,
,,,00.000014400000,   7.20000,
,,,00.000014600000,   7.20000,
,,,00.000014800000,   7.60000,
,,,00.000015000000,   7.80000,
,,,00.000015200000,   7.60000,
,,,00.000015400000,   7.80000,
,,,00.000015600000,   7.80000,
,,,00.000015800000,   8.00000,
,,,00.000016000000,   8.40000,
,,,00.000016200000,   8.20000,
,,,00.000016400000,   8.40000,
,,,00.000016600000,   8.20000,
,,,00.000016800000,   8.40000,
,,,00.000017000000,   8.40000,
,,,00.000017200000,   8.60000,
,,,00.000017400000,   8.60000,
,,,00.000017600000,   8.40000,
,,,00.000017800000,   8.60000,
,,,00.000018000000,   8.60000,
,,,00.000018200000,   9.20000,
,,,00.000018400000,   9.00000,
,,,00.000018600000,   9.60000,
,,,00.000018800000,   9.20000,
,,,00.000019000000,   9.40000,
,,,00.000019200000,   9.40000,
,,,00.000019400000,   9.20000,
,,,00.000019600000,   9.40000,
,,,00.000019800000,   9.60000,
,,,00.000020000000,   9.80000,
,,,00.000020200000,   9.80000,
,,,00.000020400000,   9.80000,
,,,00.000020600000,  10.00000,
,,,00.000020800000,  10.00000,
,,,00.000021000000,  10.20000,
,,,00.000021200000,  10.20000,
,,,00.000021400000,  10.40000,
,,,00.000021600000,  10.60000,
,,,00.000021800000,  10.40000,
,,,00.000022000000,  10.60000,
,,,00.000022200000,  10.80000,
,,,00.000022400000,  10.80000,
,,,00.000022600000,  10.80000,
,,,00.000022800000,  10.80000,
,,,00.000023000000,  10.80000,
,,,00.000023200000,  11.00000,
,,,00.000023400000,  11.20000,
,,,00.000023600000,  11.40000,
,,,00.000023800000,  11.40000,
,,,00.000024000000,  11.40000,
,,,00.000024200000,  11.20000,
,,,00.000024400000,  11.40000,
,,,00.000024600000,  11.40000,
,,,00.000024800000,  11.60000,
,,,00.000025000000,  11.80000,
,,,00.000025200000,  11.80000,
,,,00.000025400000,  11.60000,
,,,00.000025600000,  11.80000,
,,,00.000025800000,  11.80000,
,,,00.000026000000,  12.00000,
,,,00.000026200000,  12.20000,
,,,00.000026400000,  12.20000,
,,,00.000026600000,  12.20000,
,,,00.000026800000,  12.20000,
,,,00.000027000000,  12.60000,
,,,00.000027200000,  12.60000,
,,,00.000027400000,  12.60000,
,,,00.000027600000,  12.40000,
,,,00.000027800000,  12.80000,
,,,00.000028000000,  12.60000,
,,,00.000028200000,  12.80000,
,,,00.000028400000,  12.80000,
,,,00.000028600000,  13.00000,
,,,00.000028800000,  13.00000,
,,,00.000029000000,  13.00000,
,,,00.000029200000,  13.20000,
,,,00.000029400000,  13.40000,
,,,00.000029600000,  13.20000,
,,,00.000029800000,  13.40000,
,,,00.000030000000,  13.40000,
,,,00.000030200000,  13.40000,
,,,00.000030400000,  13.80000,
,,,00.000030600000,  13.60000,
,,,00.000030800000,  13.40000,
,,,00.000031000000,  13.80000,
,,,00.000031200000,  13.80000,
,,,00.000031400000,  14.00000,
,,,00.000031600000,  14.00000,
,,,00.000031800000,  14.20000,
,,,00.000032000000,  14.00000,
,,,00.000032200000,  14.20000,
,,,00.000032400000,  14.20000,
,,,00.000032600000,  14.40000,
,,,00.000032800000,  14.20000,
,,,00.000033000000,  14.20000,
,,,00.000033200000,  14.40000,
,,,00.000033400000,  14.60000,
,,,00.000033600000,  14.60000,
,,,00.000033800000,  15.00000,
,,,00.000034000000,  14.80000,
,,,00.000034200000,  14.80000,
,,,00.000034400000,  14.80000,
,,,00.000034600000,  15.00000,
,,,00.000034800000,  14.80000,
,,,00.000035000000,  15.20000,
,,,00.000035200000,  15.20000,
,,,00.000035400000,  15.00000,
,,,00.000035600000,  15.20000,
,,,00.000035800000,  15.40000,
,,,00.000036000000,  15.00000,
,,,00.000036200000,  15.20000,
,,,00.000036400000,  15.60000,
,,,00.000036600000,  15.60000,
,,,00.000036800000,  15.20000,
,,,00.000037000000,  15.40000,
,,,00.000037200000,  15.60000,
,,,00.000037400000,  15.60000,
,,,00.000037600000,  16.00000,
,,,00.000037800000,  15.80000,
,,,00.000038000000,  16.20000,
,,,00.000038200000,  15.80000,
,,,00.000038400000,  16.20000,
,,,00.000038600000,  16.00000,
,,,00.000038800000,  16.20000,
,,,00.000039000000,  16.00000,
,,,00.000039200000,  16.20000,
,,,00.000039400000,  16.20000,
,,,00.000039600000,  16.60000,
,,,00.000039800000,  16.60000,
,,,00.000040000000,  16.60000,
,,,00.000040200000,  16.60000,
,,,00.000040400000,  16.80000,
,,,00.000040600000,  16.60000,
,,,00.000040800000,  16.80000,
,,,00.000041000000,  16.80000,
,,,00.000041200000,  16.80000,
,,,00.000041400000,  17.00000,
,,,00.000041600000,  16.80000,
,,,00.000041800000,  17.00000,
,,,00.000042000000,  16.80000,
,,,00.000042200000,  17.20000,
,,,00.000042400000,  17.00000,
,,,00.000042600000,  17.00000,
,,,00.000042800000,  17.20000,
,,,00.000043000000,  17.20000,
,,,00.000043200000,  17.20000,
,,,00.000043400000,  17.40000,
,,,00.000043600000,  17.40000,
,,,00.000043800000,  17.40000,
,,,00.000044000000,  17.60000,
,,,00.000044200000,  17.40000,
,,,00.000044400000,  17.60000,
,,,00.000044600000,  17.60000,
,,,00.000044800000,  17.60000,
,,,00.000045000000,  18.00000,
,,,00.000045200000,  17.60000,
,,,00.000045400000,  17.80000,
,,,00.000045600000,  18.00000,
,,,00.000045800000,  17.80000,
,,,00.000046000000,  18.00000,
,,,00.000046200000,  18.00000,
,,,00.000046400000,  18.00000,
,,,00.000046600000,  18.20000,
,,,00.000046800000,  18.20000,
,,,00.000047000000,  18.40000,
,,,00.000047200000,  18.20000,
,,,00.000047400000,  18.40000,
,,,00.000047600000,  18.20000,
,,,00.000047800000,  18.20000,
,,,00.000048000000,  18.20000,
,,,00.000048200000,  18.40000,
,,,00.000048400000,  18.60000,
,,,00.000048600000,  18.60000,
,,,00.000048800000,  18.20000,
,,,00.000049000000,  18.60000,
,,,00.000049200000,  18.40000,
,,,00.000049400000,  18.40000,
,,,00.000049600000,  18.80000,
,,,00.000049800000,  18.80000,
,,,00.000050000000,  18.40000,
,,,00.000050200000,  18.60000,
,,,00.000050400000,  18.80000,
,,,00.000050600000,  19.00000,
,,,00.000050800000,  19.00000,
,,,00.000051000000,  18.80000,
,,,00.000051200000,  19.00000,
,,,00.000051400000,  19.20000,
,,,00.000051600000,  19.40000,
,,,00.000051800000,  19.00000,
,,,00.000052000000,  19.20000,
,,,00.000052200000,  18.80000,
,,,00.000052400000,  19.20000,
,,,00.000052600000,  19.20000,
,,,00.000052800000,  19.00000,
,,,00.000053000000,  19.20000,
,,,00.000053200000,  19.00000,
,,,00.000053400000,  19.20000,
,,,00.000053600000,  19.20000,
,,,00.000053800000,  19.40000,
,,,00.000054000000,  19.60000,
,,,00.000054200000,  19.60000,
,,,00.000054400000,  19.40000,
,,,00.000054600000,  19.20000,
,,,00.000054800000,  19.60000,
,,,00.000055000000,  19.80000,
,,,00.000055200000,  19.80000,
,,,00.000055400000,  19.80000,
,,,00.000055600000,  19.80000,
,,,00.000055800000,  19.60000,
,,,00.000056000000,  19.60000,
,,,00.000056200000,  20.00000,
,,,00.000056400000,  19.80000,
,,,00.000056600000,  19.80000,
,,,00.000056800000,  20.00000,
,,,00.000057000000,  19.80000,
,,,00.000057200000,  20.20000,
,,,00.000057400000,  20.20000,
,,,00.000057600000,  20.00000,
,,,00.000057800000,  20.40000,
,,,00.000058000000,  20.20000,
,,,00.000058200000,  20.00000,
,,,00.000058400000,  20.20000,
,,,00.000058600000,  19.80000,
,,,00.000058800000,  20.40000,
,,,00.000059000000,  20.20000,
,,,00.000059200000,  20.20000,
,,,00.000059400000,  20.20000,
,,,00.000059600000,  20.40000,
,,,00.000059800000,  20.40000,
,,,00.000060000000,  20.40000,
,,,00.000060200000,  20.60000,
,,,00.000060400000,  20.40000,
,,,00.000060600000,  20.60000,
,,,00.000060800000,  20.60000,
,,,00.000061000000,  20.60000,
,,,00.000061200000,  20.60000,
,,,00.000061400000,  20.40000,
,,,00.000061600000,  20.80000,
,,,00.000061800000,  20.60000,
,,,00.000062000000,  20.80000,
,,,00.000062200000,  20.60000,
,,,00.000062400000,  20.80000,
,,,00.000062600000,  20.80000,
,,,00.000062800000,  20.80000,
,,,00.000063000000,  20.80000,
,,,00.000063200000,  21.20000,
,,,00.000063400000,  20.80000,
,,,00.000063600000,  20.80000,
,,,00.000063800000,  21.20000,
,,,00.000064000000,  20.80000,
,,,00.000064200000,  21.20000,
,,,00.000064400000,  21.00000,
,,,00.000064600000,  21.00000,
,,,00.000064800000,  21.00000,
,,,00.000065000000,  20.60000,
,,,00.000065200000,  21.00000,
,,,00.000065400000,  21.20000,
,,,00.000065600000,  21.20000,
,,,00.000065800000,  21.20000,
,,,00.000066000000,  21.20000,
,,,00.000066200000,  21.40000,
,,,00.000066400000,  21.20000,
,,,00.000066600000,  21.20000,
,,,00.000066800000,  21.20000,
,,,00.000067000000,  21.20000,
,,,00.000067200000,  21.60000,
,,,00.000067400000,  21.40000,
,,,00.000067600000,  21.40000,
,,,00.000067800000,  21.20000,
,,,00.000068000000,  21.40000,
,,,00.000068200000,  21.20000,
,,,00.000068400000,  21.60000,
,,,00.000068600000,  21.20000,
,,,00.000068800000,  21.40000,
,,,00.000069000000,  21.60000,
,,,00.000069200000,  21.40000,
,,,00.000069400000,  21.40000,
,,,00.000069600000,  21.40000,
,,,00.000069800000,  21.20000,
,,,00.000070000000,  21.20000,
,,,00.000070200000,  21.40000,
,,,00.000070400000,  21.40000,
,,,00.000070600000,  21.60000,
,,,00.000070800000,  21.60000,
,,,00.000071000000,  21.60000,
,,,00.000071200000,  21.80000,
,,,00.000071400000,  21.60000,
,,,00.000071600000,  21.60000,
,,,00.000071800000,  21.60000,
,,,00.000072000000,  21.60000,
,,,00.000072200000,  21.60000,
,,,00.000072400000,  21.60000,
,,,00.000072600000,  21.40000,
,,,00.000072800000,  22.00000,
,,,00.000073000000,  21.80000,
,,,00.000073200000,  21.80000,
,,,00.000073400000,  21.60000,
,,,00.000073600000,  21.60000,
,,,00.000073800000,  21.80000,
,,,00.000074000000,  21.80000,
,,,00.000074200000,  21.80000,
,,,00.000074400000,  21.80000,
,,,00.000074600000,  21.80000,
,,,00.000074800000,  21.80000,
,,,00.000075000000,  21.60000,
